banco: 00193
numero_cta: 4178499999028121
naturaleza_contable: C
marca_prod: 2
fecha_consumo: 1807090
hora_consumo: 000001
fecha_proceso: 180710
importe_total: 0000000440190
importe_consumo: 0000000000000
moneda_importe: 484
importe_destino_total: 0000000440190
importe_destino_consumo: 0000000000000
moneda_destino_importe: 484
importe_liquidacion_consumo: 0000000000000
moneda_liquidacion_importe: 484
clave_comercio: 000000000944157
giro_comercio: 07011
nombre_comercio: HOT HOLIDAY INN MERIDA
pais: MX cp:
numero_autorizacion: 070773
referencia: 74049388191909441574926
fiid_emisor: B193
term_id:
fiid_adquiriente: BNMX